{
	"title": "Anti Faimly Sharing",
	"type":	"ServerContent",
	"tags":	[ "fun" ],
	"ignore":
	[
        ".cache/*",
		".git/*",
        ".gitlab/*",
        ".gitignore",
        ".gitattributes",
        "antifamilysharing.jpg",
        "LICENSE",
        "*.bat",
        "*.code-workspace",
        "*.json",
        "*.md",
        "*.psd",
        "*.xcf",
        "*.yml"
	]
}
